repo/tb/f1.vcd
$version Generated by VerilatedVcd $end
$date Fri Dec 12 12:18:13 2025 $end
$timescale 1ps $end

 $scope module TOP $end
  $var wire 32 b a0 [31:0] $end
  $var wire  1 _ clk $end
  $var wire  1 ` rst $end
  $var wire  1 a trigger $end
  $scope module top $end
   $var wire  3 S ALUControl [2:0] $end
   $var wire 32 L ALUResult [31:0] $end
   $var wire  1 P ALUSrc $end
   $var wire 32 e DATA_WIDTH [31:0] $end
   $var wire 32 H ImmExt [31:0] $end
   $var wire  3 T ImmSrc [2:0] $end
   $var wire 32 G Instr [31:0] $end
   $var wire  1 O MemWrite $end
   $var wire 32 C PC [31:0] $end
   $var wire 32 D PCNext [31:0] $end
   $var wire 32 E PCPlus4 [31:0] $end
   $var wire  2 Q PCSrc [1:0] $end
   $var wire 32 c ReadData [31:0] $end
   $var wire 32 K ReadData2 [31:0] $end
   $var wire  1 N RegWrite $end
   $var wire 32 d Result [31:0] $end
   $var wire  2 R ResultSrc [1:0] $end
   $var wire 32 I SrcA [31:0] $end
   $var wire 32 J SrcB [31:0] $end
   $var wire  1 M Zero $end
   $var wire 32 b a0 [31:0] $end
   $var wire 32 F branch_target [31:0] $end
   $var wire  1 _ clk $end
   $var wire  1 ` rst $end
   $var wire  1 a trigger $end
   $scope module ALU $end
    $var wire  3 S ALUControl_i [2:0] $end
    $var wire 32 L ALUResult_o [31:0] $end
    $var wire 32 e DATA_WIDTH [31:0] $end
    $var wire 32 I SrcA_i [31:0] $end
    $var wire 32 J SrcB_i [31:0] $end
    $var wire  1 M Zero_o $end
   $upscope $end
   $scope module Instruction_Memory $end
    $var wire 32 e ADDRESS_WIDTH [31:0] $end
    $var wire 32 C A_i [31:0] $end
    $var wire 32 f BYTE_WIDTH [31:0] $end
    $var wire 32 e INSTR_WIDTH [31:0] $end
    $var wire 32 G RD_o [31:0] $end
   $upscope $end
   $scope module PC_arithmetic $end
    $var wire 32 e DATA_WIDTH [31:0] $end
    $var wire 32 H ImmOp_i [31:0] $end
    $var wire 32 C PC_i [31:0] $end
    $var wire 32 F branch_PC_o [31:0] $end
    $var wire 32 E inc_PC_o [31:0] $end
   $upscope $end
   $scope module PC_mux $end
    $var wire 32 e DATA_WIDTH [31:0] $end
    $var wire  2 Q PC_src_i [1:0] $end
    $var wire 32 F branch_PC_i [31:0] $end
    $var wire 32 E inc_PC_i [31:0] $end
    $var wire 32 L jalr_PC_i [31:0] $end
    $var wire 32 D next_pc_o [31:0] $end
   $upscope $end
   $scope module control_unit $end
    $var wire  3 S ALUControl_o [2:0] $end
    $var wire  2 Y ALUOp [1:0] $end
    $var wire  1 P ALUSrc_o $end
    $var wire  3 T ImmSrc_o [2:0] $end
    $var wire  1 O MemWrite_o $end
    $var wire  2 Q PCSrc_o [1:0] $end
    $var wire  1 N RegWrite_o $end
    $var wire  2 R ResultSrc_o [1:0] $end
    $var wire  1 M Zero_i $end
    $var wire  1 X branch $end
    $var wire  3 V funct3_i [2:0] $end
    $var wire  1 W funct7_i $end
    $var wire  1 [ jalr $end
    $var wire  1 Z jump $end
    $var wire  7 U op_i [6:0] $end
   $upscope $end
   $scope module data_memory $end
    $var wire 32 e ADDRESS_WIDTH [31:0] $end
    $var wire 32 f BYTE_WIDTH [31:0] $end
    $var wire 32 e DATA_WIDTH [31:0] $end
    $var wire 32 L addr_i [31:0] $end
    $var wire  1 _ clk_i $end
    $var wire 32 K data_i [31:0] $end
    $var wire 32 c data_o [31:0] $end
    $var wire  3 V funct3_i [2:0] $end
    $var wire  1 O wr_en_i $end
   $upscope $end
   $scope module program_counter $end
    $var wire 32 e DATA_WIDTH [31:0] $end
    $var wire 32 C PC_o [31:0] $end
    $var wire  1 _ clk_i $end
    $var wire 32 D next_pc_i [31:0] $end
    $var wire  1 ` rst_i $end
   $upscope $end
   $scope module register_file $end
    $var wire 32 b A0_o [31:0] $end
    $var wire  5 \ A1_i [4:0] $end
    $var wire  5 ] A2_i [4:0] $end
    $var wire  5 ^ A3_i [4:0] $end
    $var wire 32 g ADDRESS_WIDTH [31:0] $end
    $var wire 32 e DATA_WIDTH [31:0] $end
    $var wire 32 I RD1_o [31:0] $end
    $var wire 32 K RD2_o [31:0] $end
    $var wire 32 d WD3_i [31:0] $end
    $var wire  1 N WE3_i $end
    $var wire  1 _ clk_i $end
    $var wire 32 # mem[0] [31:0] $end
    $var wire 32 - mem[10] [31:0] $end
    $var wire 32 . mem[11] [31:0] $end
    $var wire 32 / mem[12] [31:0] $end
    $var wire 32 0 mem[13] [31:0] $end
    $var wire 32 1 mem[14] [31:0] $end
    $var wire 32 2 mem[15] [31:0] $end
    $var wire 32 3 mem[16] [31:0] $end
    $var wire 32 4 mem[17] [31:0] $end
    $var wire 32 5 mem[18] [31:0] $end
    $var wire 32 6 mem[19] [31:0] $end
    $var wire 32 $ mem[1] [31:0] $end
    $var wire 32 7 mem[20] [31:0] $end
    $var wire 32 8 mem[21] [31:0] $end
    $var wire 32 9 mem[22] [31:0] $end
    $var wire 32 : mem[23] [31:0] $end
    $var wire 32 ; mem[24] [31:0] $end
    $var wire 32 < mem[25] [31:0] $end
    $var wire 32 = mem[26] [31:0] $end
    $var wire 32 > mem[27] [31:0] $end
    $var wire 32 ? mem[28] [31:0] $end
    $var wire 32 @ mem[29] [31:0] $end
    $var wire 32 % mem[2] [31:0] $end
    $var wire 32 A mem[30] [31:0] $end
    $var wire 32 B mem[31] [31:0] $end
    $var wire 32 & mem[3] [31:0] $end
    $var wire 32 ' mem[4] [31:0] $end
    $var wire 32 ( mem[5] [31:0] $end
    $var wire 32 ) mem[6] [31:0] $end
    $var wire 32 * mem[7] [31:0] $end
    $var wire 32 + mem[8] [31:0] $end
    $var wire 32 , mem[9] [31:0] $end
   $upscope $end
   $scope module sign_extend $end
    $var wire 32 e DATA_WIDTH [31:0] $end
    $var wire 32 H ImmExt_o [31:0] $end
    $var wire 32 G ImmInstr_i [31:0] $end
    $var wire  3 T ImmSrc_i [2:0] $end
    $var wire  7 U unused [6:0] $end
   $upscope $end
  $upscope $end
 $upscope $end
$enddefinitions $end


#0
b00000000000000000000000000000000 #
b00000000000000000000000000000000 $
b00000000000000000000000000000000 %
b00000000000000000000000000000000 &
b00000000000000000000000000000000 '
b00000000000000000000000000000000 (
b00000000000000000000000000000000 )
b00000000000000000000000000000000 *
b00000000000000000000000000000000 +
b00000000000000000000000000000000 ,
b00000000000000000000000000000000 -
b00000000000000000000000000000000 .
b00000000000000000000000000000000 /
b00000000000000000000000000000000 0
b00000000000000000000000000000000 1
b00000000000000000000000000000000 2
b00000000000000000000000000000000 3
b00000000000000000000000000000000 4
b00000000000000000000000000000000 5
b00000000000000000000000000000000 6
b00000000000000000000000000000000 7
b00000000000000000000000000000000 8
b00000000000000000000000000000000 9
b00000000000000000000000000000000 :
b00000000000000000000000000000000 ;
b00000000000000000000000000000000 <
b00000000000000000000000000000000 =
b00000000000000000000000000000000 >
b00000000000000000000000000000000 ?
b00000000000000000000000000000000 @
b00000000000000000000000000000000 A
b00000000000000000000000000000000 B
b00000000000000000000000000000000 C
b00000000000000000000000000000100 D
b00000000000000000000000000000100 E
b00000000000000000000000000000000 F
b00000000000000000000000000000000 G
b00000000000000000000000000000000 H
b00000000000000000000000000000000 I
b00000000000000000000000000000000 J
b00000000000000000000000000000000 K
b00000000000000000000000000000000 L
1M
0N
0O
0P
b00 Q
b00 R
b000 S
b000 T
b0000000 U
b000 V
0W
0X
b00 Y
0Z
0[
b00000 \
b00000 ]
b00000 ^
1_
0`
0a
b00000000000000000000000000000000 b
b00000000000000000000000000000000 c
b00000000000000000000000000000000 d
b00000000000000000000000000100000 e
b00000000000000000000000000001000 f
b00000000000000000000000000000101 g
#1
b00000000000000000000010100010011 G
1N
1P
b0010011 U
b10 Y
b01010 ^
0_
#2
b00000000000000000000000000000100 C
b00000000000000000000000000001000 D
b00000000000000000000000000001000 E
b00000000000000000000000000000100 F
b00000000000000000000011000010011 G
b01100 ^
1_
1`
#3
b00000000000000000000000000000000 C
b00000000000000000000000000000100 D
b00000000000000000000000000000100 E
b00000000000000000000000000000000 F
b00000000000000000000010100010011 G
b01010 ^
0_
#4
1_
#5
0_
#6
1_
0`
#7
0_
#8
b00000000000000000000000000000100 C
b00000000000000000000000000001000 D
b00000000000000000000000000001000 E
b00000000000000000000000000000100 F
b00000000000000000000011000010011 G
b01100 ^
1_
#9
0_
#10
b00000000000000000000000000001000 C
b00000000000000000000000000001100 D
b00000000000000000000000000001100 E
b00000000000000000000000000001000 F
b00000000000000000000011010010011 G
b01101 ^
1_
#11
0_
#12
b00000000000000000000000000001100 C
b00000000000000000000000000010000 D
b00000000000000000000000000010000 E
b00000000000000000000000100001011 F
b00001111111100000000001100010011 G
b00000000000000000000000011111111 H
b00000000000000000000000011111111 J
b00000000000000000000000011111111 L
0M
b11111 ]
b00110 ^
1_
b00000000000000000000000011111111 d
#13
0_
#14
b00000000000000000000000011111111 )
b00000000000000000000000000010000 C
b00000000000000000000000000010100 D
b00000000000000000000000000010100 E
b00000000000000000000000001101010 F
b00000101101000000000111010010011 G
b00000000000000000000000001011010 H
b00000000000000000000000001011010 J
b00000000000000000000000001011010 L
b11010 ]
b11101 ^
1_
b00000000000000000000000001011010 d
#15
0_
#16
b00000000000000000000000001011010 @
b00000000000000000000000000010100 C
b00000000000000000000000000011000 D
b00000000000000000000000000011000 E
b00000000000000000000000000110010 F
b00000001111000000000001110010011 G
b00000000000000000000000000011110 H
b00000000000000000000000000011110 J
b00000000000000000000000000011110 L
b11110 ]
b00111 ^
1_
b00000000000000000000000000011110 d
#17
0_
#18
b00000000000000000000000000011110 *
b00000000000000000000000000011000 C
b00000000000000000000000000011100 D
b00000000000000000000000000011100 E
b00000000000000000000000000010111 F
b11111111111100111000001110010011 G
b11111111111111111111111111111111 H
b00000000000000000000000000011110 I
b11111111111111111111111111111111 J
b00000000000000000000000000011101 L
1W
b00111 \
b11111 ]
1_
b00000000000000000000000000011101 d
#19
0_
#20
b00000000000000000000000000011101 *
b00000000000000000000000000011100 C
b00000000000000000000000000011000 D
b00000000000000000000000000100000 E
b00000000000000000000000000011000 F
b11111110000000111001111011100011 G
b11111111111111111111111111111100 H
b00000000000000000000000000011101 I
b00000000000000000000000000000000 J
0N
0P
b01 Q
b001 S
b001 T
b1100011 U
b001 V
1X
b01 Y
b00000 ]
b11101 ^
1_
#21
0_
#22
b00000000000000000000000000011000 C
b00000000000000000000000000011100 D
b00000000000000000000000000011100 E
b00000000000000000000000000010111 F
b11111111111100111000001110010011 G
b11111111111111111111111111111111 H
b11111111111111111111111111111111 J
b00000000000000000000000000011100 L
1N
1P
b00 Q
b000 S
b000 T
b0010011 U
b000 V
0X
b10 Y
b11111 ]
b00111 ^
1_
b00000000000000000000000000011100 d
#23
0_
#24
b00000000000000000000000000011100 *
b00000000000000000000000000011100 C
b00000000000000000000000000011000 D
b00000000000000000000000000100000 E
b00000000000000000000000000011000 F
b11111110000000111001111011100011 G
b11111111111111111111111111111100 H
b00000000000000000000000000011100 I
b00000000000000000000000000000000 J
0N
0P
b01 Q
b001 S
b001 T
b1100011 U
b001 V
1X
b01 Y
b00000 ]
b11101 ^
1_
#25
0_
#26
b00000000000000000000000000011000 C
b00000000000000000000000000011100 D
b00000000000000000000000000011100 E
b00000000000000000000000000010111 F
b11111111111100111000001110010011 G
b11111111111111111111111111111111 H
b11111111111111111111111111111111 J
b00000000000000000000000000011011 L
1N
1P
b00 Q
b000 S
b000 T
b0010011 U
b000 V
0X
b10 Y
b11111 ]
b00111 ^
1_
b00000000000000000000000000011011 d
#27
0_
#28
b00000000000000000000000000011011 *
b00000000000000000000000000011100 C
b00000000000000000000000000011000 D
b00000000000000000000000000100000 E
b00000000000000000000000000011000 F
b11111110000000111001111011100011 G
b11111111111111111111111111111100 H
b00000000000000000000000000011011 I
b00000000000000000000000000000000 J
0N
0P
b01 Q
b001 S
b001 T
b1100011 U
b001 V
1X
b01 Y
b00000 ]
b11101 ^
1_
#29
0_
#30
b00000000000000000000000000011000 C
b00000000000000000000000000011100 D
b00000000000000000000000000011100 E
b00000000000000000000000000010111 F
b11111111111100111000001110010011 G
b11111111111111111111111111111111 H
b11111111111111111111111111111111 J
b00000000000000000000000000011010 L
1N
1P
b00 Q
b000 S
b000 T
b0010011 U
b000 V
0X
b10 Y
b11111 ]
b00111 ^
1_
b00000000000000000000000000011010 d
#31
0_
#32
b00000000000000000000000000011010 *
b00000000000000000000000000011100 C
b00000000000000000000000000011000 D
b00000000000000000000000000100000 E
b00000000000000000000000000011000 F
b11111110000000111001111011100011 G
b11111111111111111111111111111100 H
b00000000000000000000000000011010 I
b00000000000000000000000000000000 J
0N
0P
b01 Q
b001 S
b001 T
b1100011 U
b001 V
1X
b01 Y
b00000 ]
b11101 ^
1_
#33
0_
#34
b00000000000000000000000000011000 C
b00000000000000000000000000011100 D
b00000000000000000000000000011100 E
b00000000000000000000000000010111 F
b11111111111100111000001110010011 G
b11111111111111111111111111111111 H
b11111111111111111111111111111111 J
b00000000000000000000000000011001 L
1N
1P
b00 Q
b000 S
b000 T
b0010011 U
b000 V
0X
b10 Y
b11111 ]
b00111 ^
1_
b00000000000000000000000000011001 d
#35
0_
#36
b00000000000000000000000000011001 *
b00000000000000000000000000011100 C
b00000000000000000000000000011000 D
b00000000000000000000000000100000 E
b00000000000000000000000000011000 F
b11111110000000111001111011100011 G
b11111111111111111111111111111100 H
b00000000000000000000000000011001 I
b00000000000000000000000000000000 J
0N
0P
b01 Q
b001 S
b001 T
b1100011 U
b001 V
1X
b01 Y
b00000 ]
b11101 ^
1_
#37
0_
#38
b00000000000000000000000000011000 C
b00000000000000000000000000011100 D
b00000000000000000000000000011100 E
b00000000000000000000000000010111 F
b11111111111100111000001110010011 G
b11111111111111111111111111111111 H
b11111111111111111111111111111111 J
b00000000000000000000000000011000 L
1N
1P
b00 Q
b000 S
b000 T
b0010011 U
b000 V
0X
b10 Y
b11111 ]
b00111 ^
1_
b00000000000000000000000000011000 d
#39
0_
#40
b00000000000000000000000000011000 *
b00000000000000000000000000011100 C
b00000000000000000000000000011000 D
b00000000000000000000000000100000 E
b00000000000000000000000000011000 F
b11111110000000111001111011100011 G
b11111111111111111111111111111100 H
b00000000000000000000000000011000 I
b00000000000000000000000000000000 J
0N
0P
b01 Q
b001 S
b001 T
b1100011 U
b001 V
1X
b01 Y
b00000 ]
b11101 ^
1_
#41
0_
#42
b00000000000000000000000000011000 C
b00000000000000000000000000011100 D
b00000000000000000000000000011100 E
b00000000000000000000000000010111 F
b11111111111100111000001110010011 G
b11111111111111111111111111111111 H
b11111111111111111111111111111111 J
b00000000000000000000000000010111 L
1N
1P
b00 Q
b000 S
b000 T
b0010011 U
b000 V
0X
b10 Y
b11111 ]
b00111 ^
1_
b00000000000000000000000000010111 d
#43
0_
#44
b00000000000000000000000000010111 *
b00000000000000000000000000011100 C
b00000000000000000000000000011000 D
b00000000000000000000000000100000 E
b00000000000000000000000000011000 F
b11111110000000111001111011100011 G
b11111111111111111111111111111100 H
b00000000000000000000000000010111 I
b00000000000000000000000000000000 J
0N
0P
b01 Q
b001 S
b001 T
b1100011 U
b001 V
1X
b01 Y
b00000 ]
b11101 ^
1_
#45
0_
#46
b00000000000000000000000000011000 C
b00000000000000000000000000011100 D
b00000000000000000000000000011100 E
b00000000000000000000000000010111 F
b11111111111100111000001110010011 G
b11111111111111111111111111111111 H
b11111111111111111111111111111111 J
b00000000000000000000000000010110 L
1N
1P
b00 Q
b000 S
b000 T
b0010011 U
b000 V
0X
b10 Y
b11111 ]
b00111 ^
1_
b00000000000000000000000000010110 d
#47
0_
#48
b00000000000000000000000000010110 *
b00000000000000000000000000011100 C
b00000000000000000000000000011000 D
b00000000000000000000000000100000 E
b00000000000000000000000000011000 F
b11111110000000111001111011100011 G
b11111111111111111111111111111100 H
b00000000000000000000000000010110 I
b00000000000000000000000000000000 J
0N
0P
b01 Q
b001 S
b001 T
b1100011 U
b001 V
1X
b01 Y
b00000 ]
b11101 ^
1_
#49
0_
#50
b00000000000000000000000000011000 C
b00000000000000000000000000011100 D
b00000000000000000000000000011100 E
b00000000000000000000000000010111 F
b11111111111100111000001110010011 G
b11111111111111111111111111111111 H
b11111111111111111111111111111111 J
b00000000000000000000000000010101 L
1N
1P
b00 Q
b000 S
b000 T
b0010011 U
b000 V
0X
b10 Y
b11111 ]
b00111 ^
1_
b00000000000000000000000000010101 d
#51
0_
#52
b00000000000000000000000000010101 *
b00000000000000000000000000011100 C
b00000000000000000000000000011000 D
b00000000000000000000000000100000 E
b00000000000000000000000000011000 F
b11111110000000111001111011100011 G
b11111111111111111111111111111100 H
b00000000000000000000000000010101 I
b00000000000000000000000000000000 J
0N
0P
b01 Q
b001 S
b001 T
b1100011 U
b001 V
1X
b01 Y
b00000 ]
b11101 ^
1_
#53
0_
#54
b00000000000000000000000000011000 C
b00000000000000000000000000011100 D
b00000000000000000000000000011100 E
b00000000000000000000000000010111 F
b11111111111100111000001110010011 G
b11111111111111111111111111111111 H
b11111111111111111111111111111111 J
b00000000000000000000000000010100 L
1N
1P
b00 Q
b000 S
b000 T
b0010011 U
b000 V
0X
b10 Y
b11111 ]
b00111 ^
1_
b00000000000000000000000000010100 d
#55
0_
#56
b00000000000000000000000000010100 *
b00000000000000000000000000011100 C
b00000000000000000000000000011000 D
b00000000000000000000000000100000 E
b00000000000000000000000000011000 F
b11111110000000111001111011100011 G
b11111111111111111111111111111100 H
b00000000000000000000000000010100 I
b00000000000000000000000000000000 J
0N
0P
b01 Q
b001 S
b001 T
b1100011 U
b001 V
1X
b01 Y
b00000 ]
b11101 ^
1_
#57
0_
#58
b00000000000000000000000000011000 C
b00000000000000000000000000011100 D
b00000000000000000000000000011100 E
b00000000000000000000000000010111 F
b11111111111100111000001110010011 G
b11111111111111111111111111111111 H
b11111111111111111111111111111111 J
b00000000000000000000000000010011 L
1N
1P
b00 Q
b000 S
b000 T
b0010011 U
b000 V
0X
b10 Y
b11111 ]
b00111 ^
1_
b00000000000000000000000000010011 d
#59
0_
#60
b00000000000000000000000000010011 *
b00000000000000000000000000011100 C
b00000000000000000000000000011000 D
b00000000000000000000000000100000 E
b00000000000000000000000000011000 F
b11111110000000111001111011100011 G
b11111111111111111111111111111100 H
b00000000000000000000000000010011 I
b00000000000000000000000000000000 J
0N
0P
b01 Q
b001 S
b001 T
b1100011 U
b001 V
1X
b01 Y
b00000 ]
b11101 ^
1_
#61
0_
#62
b00000000000000000000000000011000 C
b00000000000000000000000000011100 D
b00000000000000000000000000011100 E
b00000000000000000000000000010111 F
b11111111111100111000001110010011 G
b11111111111111111111111111111111 H
b11111111111111111111111111111111 J
b00000000000000000000000000010010 L
1N
1P
b00 Q
b000 S
b000 T
b0010011 U
b000 V
0X
b10 Y
b11111 ]
b00111 ^
1_
b00000000000000000000000000010010 d
#63
0_
#64
b00000000000000000000000000010010 *
b00000000000000000000000000011100 C
b00000000000000000000000000011000 D
b00000000000000000000000000100000 E
b00000000000000000000000000011000 F
b11111110000000111001111011100011 G
b11111111111111111111111111111100 H
b00000000000000000000000000010010 I
b00000000000000000000000000000000 J
0N
0P
b01 Q
b001 S
b001 T
b1100011 U
b001 V
1X
b01 Y
b00000 ]
b11101 ^
1_
#65
0_
#66
b00000000000000000000000000011000 C
b00000000000000000000000000011100 D
b00000000000000000000000000011100 E
b00000000000000000000000000010111 F
b11111111111100111000001110010011 G
b11111111111111111111111111111111 H
b11111111111111111111111111111111 J
b00000000000000000000000000010001 L
1N
1P
b00 Q
b000 S
b000 T
b0010011 U
b000 V
0X
b10 Y
b11111 ]
b00111 ^
1_
b00000000000000000000000000010001 d
#67
0_
#68
b00000000000000000000000000010001 *
b00000000000000000000000000011100 C
b00000000000000000000000000011000 D
b00000000000000000000000000100000 E
b00000000000000000000000000011000 F
b11111110000000111001111011100011 G
b11111111111111111111111111111100 H
b00000000000000000000000000010001 I
b00000000000000000000000000000000 J
0N
0P
b01 Q
b001 S
b001 T
b1100011 U
b001 V
1X
b01 Y
b00000 ]
b11101 ^
1_
#69
0_
#70
b00000000000000000000000000011000 C
b00000000000000000000000000011100 D
b00000000000000000000000000011100 E
b00000000000000000000000000010111 F
b11111111111100111000001110010011 G
b11111111111111111111111111111111 H
b11111111111111111111111111111111 J
b00000000000000000000000000010000 L
1N
1P
b00 Q
b000 S
b000 T
b0010011 U
b000 V
0X
b10 Y
b11111 ]
b00111 ^
1_
b00000000000000000000000000010000 d
#71
0_
#72
b00000000000000000000000000010000 *
b00000000000000000000000000011100 C
b00000000000000000000000000011000 D
b00000000000000000000000000100000 E
b00000000000000000000000000011000 F
b11111110000000111001111011100011 G
b11111111111111111111111111111100 H
b00000000000000000000000000010000 I
b00000000000000000000000000000000 J
0N
0P
b01 Q
b001 S
b001 T
b1100011 U
b001 V
1X
b01 Y
b00000 ]
b11101 ^
1_
#73
0_
#74
b00000000000000000000000000011000 C
b00000000000000000000000000011100 D
b00000000000000000000000000011100 E
b00000000000000000000000000010111 F
b11111111111100111000001110010011 G
b11111111111111111111111111111111 H
b11111111111111111111111111111111 J
b00000000000000000000000000001111 L
1N
1P
b00 Q
b000 S
b000 T
b0010011 U
b000 V
0X
b10 Y
b11111 ]
b00111 ^
1_
b00000000000000000000000000001111 d
#75
0_
#76
b00000000000000000000000000001111 *
b00000000000000000000000000011100 C
b00000000000000000000000000011000 D
b00000000000000000000000000100000 E
b00000000000000000000000000011000 F
b11111110000000111001111011100011 G
b11111111111111111111111111111100 H
b00000000000000000000000000001111 I
b00000000000000000000000000000000 J
0N
0P
b01 Q
b001 S
b001 T
b1100011 U
b001 V
1X
b01 Y
b00000 ]
b11101 ^
1_
#77
0_
#78
b00000000000000000000000000011000 C
b00000000000000000000000000011100 D
b00000000000000000000000000011100 E
b00000000000000000000000000010111 F
b11111111111100111000001110010011 G
b11111111111111111111111111111111 H
b11111111111111111111111111111111 J
b00000000000000000000000000001110 L
1N
1P
b00 Q
b000 S
b000 T
b0010011 U
b000 V
0X
b10 Y
b11111 ]
b00111 ^
1_
b00000000000000000000000000001110 d
#79
0_
#80
b00000000000000000000000000001110 *
b00000000000000000000000000011100 C
b00000000000000000000000000011000 D
b00000000000000000000000000100000 E
b00000000000000000000000000011000 F
b11111110000000111001111011100011 G
b11111111111111111111111111111100 H
b00000000000000000000000000001110 I
b00000000000000000000000000000000 J
0N
0P
b01 Q
b001 S
b001 T
b1100011 U
b001 V
1X
b01 Y
b00000 ]
b11101 ^
1_
#81
0_
#82
b00000000000000000000000000011000 C
b00000000000000000000000000011100 D
b00000000000000000000000000011100 E
b00000000000000000000000000010111 F
b11111111111100111000001110010011 G
b11111111111111111111111111111111 H
b11111111111111111111111111111111 J
b00000000000000000000000000001101 L
1N
1P
b00 Q
b000 S
b000 T
b0010011 U
b000 V
0X
b10 Y
b11111 ]
b00111 ^
1_
b00000000000000000000000000001101 d
#83
0_
#84
b00000000000000000000000000001101 *
b00000000000000000000000000011100 C
b00000000000000000000000000011000 D
b00000000000000000000000000100000 E
b00000000000000000000000000011000 F
b11111110000000111001111011100011 G
b11111111111111111111111111111100 H
b00000000000000000000000000001101 I
b00000000000000000000000000000000 J
0N
0P
b01 Q
b001 S
b001 T
b1100011 U
b001 V
1X
b01 Y
b00000 ]
b11101 ^
1_
#85
0_
#86
b00000000000000000000000000011000 C
b00000000000000000000000000011100 D
b00000000000000000000000000011100 E
b00000000000000000000000000010111 F
b11111111111100111000001110010011 G
b11111111111111111111111111111111 H
b11111111111111111111111111111111 J
b00000000000000000000000000001100 L
1N
1P
b00 Q
b000 S
b000 T
b0010011 U
b000 V
0X
b10 Y
b11111 ]
b00111 ^
1_
b00000000000000000000000000001100 d
#87
0_
#88
b00000000000000000000000000001100 *
b00000000000000000000000000011100 C
b00000000000000000000000000011000 D
b00000000000000000000000000100000 E
b00000000000000000000000000011000 F
b11111110000000111001111011100011 G
b11111111111111111111111111111100 H
b00000000000000000000000000001100 I
b00000000000000000000000000000000 J
0N
0P
b01 Q
b001 S
b001 T
b1100011 U
b001 V
1X
b01 Y
b00000 ]
b11101 ^
1_
#89
0_
#90
b00000000000000000000000000011000 C
b00000000000000000000000000011100 D
b00000000000000000000000000011100 E
b00000000000000000000000000010111 F
b11111111111100111000001110010011 G
b11111111111111111111111111111111 H
b11111111111111111111111111111111 J
b00000000000000000000000000001011 L
1N
1P
b00 Q
b000 S
b000 T
b0010011 U
b000 V
0X
b10 Y
b11111 ]
b00111 ^
1_
b00000000000000000000000000001011 d
#91
0_
#92
b00000000000000000000000000001011 *
b00000000000000000000000000011100 C
b00000000000000000000000000011000 D
b00000000000000000000000000100000 E
b00000000000000000000000000011000 F
b11111110000000111001111011100011 G
b11111111111111111111111111111100 H
b00000000000000000000000000001011 I
b00000000000000000000000000000000 J
0N
0P
b01 Q
b001 S
b001 T
b1100011 U
b001 V
1X
b01 Y
b00000 ]
b11101 ^
1_
#93
0_
#94
b00000000000000000000000000011000 C
b00000000000000000000000000011100 D
b00000000000000000000000000011100 E
b00000000000000000000000000010111 F
b11111111111100111000001110010011 G
b11111111111111111111111111111111 H
b11111111111111111111111111111111 J
b00000000000000000000000000001010 L
1N
1P
b00 Q
b000 S
b000 T
b0010011 U
b000 V
0X
b10 Y
b11111 ]
b00111 ^
1_
b00000000000000000000000000001010 d
#95
0_
#96
b00000000000000000000000000001010 *
b00000000000000000000000000011100 C
b00000000000000000000000000011000 D
b00000000000000000000000000100000 E
b00000000000000000000000000011000 F
b11111110000000111001111011100011 G
b11111111111111111111111111111100 H
b00000000000000000000000000001010 I
b00000000000000000000000000000000 J
0N
0P
b01 Q
b001 S
b001 T
b1100011 U
b001 V
1X
b01 Y
b00000 ]
b11101 ^
1_
#97
0_
#98
b00000000000000000000000000011000 C
b00000000000000000000000000011100 D
b00000000000000000000000000011100 E
b00000000000000000000000000010111 F
b11111111111100111000001110010011 G
b11111111111111111111111111111111 H
b11111111111111111111111111111111 J
b00000000000000000000000000001001 L
1N
1P
b00 Q
b000 S
b000 T
b0010011 U
b000 V
0X
b10 Y
b11111 ]
b00111 ^
1_
b00000000000000000000000000001001 d
#99
0_
#100
b00000000000000000000000000001001 *
b00000000000000000000000000011100 C
b00000000000000000000000000011000 D
b00000000000000000000000000100000 E
b00000000000000000000000000011000 F
b11111110000000111001111011100011 G
b11111111111111111111111111111100 H
b00000000000000000000000000001001 I
b00000000000000000000000000000000 J
0N
0P
b01 Q
b001 S
b001 T
b1100011 U
b001 V
1X
b01 Y
b00000 ]
b11101 ^
1_
#101
0_
#102
b00000000000000000000000000011000 C
b00000000000000000000000000011100 D
b00000000000000000000000000011100 E
b00000000000000000000000000010111 F
b11111111111100111000001110010011 G
b11111111111111111111111111111111 H
b11111111111111111111111111111111 J
b00000000000000000000000000001000 L
1N
1P
b00 Q
b000 S
b000 T
b0010011 U
b000 V
0X
b10 Y
b11111 ]
b00111 ^
1_
b00000000000000000000000000001000 d
#103
0_
#104
b00000000000000000000000000001000 *
b00000000000000000000000000011100 C
b00000000000000000000000000011000 D
b00000000000000000000000000100000 E
b00000000000000000000000000011000 F
b11111110000000111001111011100011 G
b11111111111111111111111111111100 H
b00000000000000000000000000001000 I
b00000000000000000000000000000000 J
0N
0P
b01 Q
b001 S
b001 T
b1100011 U
b001 V
1X
b01 Y
b00000 ]
b11101 ^
1_
#105
0_
#106
b00000000000000000000000000011000 C
b00000000000000000000000000011100 D
b00000000000000000000000000011100 E
b00000000000000000000000000010111 F
b11111111111100111000001110010011 G
b11111111111111111111111111111111 H
b11111111111111111111111111111111 J
b00000000000000000000000000000111 L
1N
1P
b00 Q
b000 S
b000 T
b0010011 U
b000 V
0X
b10 Y
b11111 ]
b00111 ^
1_
b00000000000000000000000000000111 d
#107
0_
#108
b00000000000000000000000000000111 *
b00000000000000000000000000011100 C
b00000000000000000000000000011000 D
b00000000000000000000000000100000 E
b00000000000000000000000000011000 F
b11111110000000111001111011100011 G
b11111111111111111111111111111100 H
b00000000000000000000000000000111 I
b00000000000000000000000000000000 J
0N
0P
b01 Q
b001 S
b001 T
b1100011 U
b001 V
1X
b01 Y
b00000 ]
b11101 ^
1_
#109
0_
#110
b00000000000000000000000000011000 C
b00000000000000000000000000011100 D
b00000000000000000000000000011100 E
b00000000000000000000000000010111 F
b11111111111100111000001110010011 G
b11111111111111111111111111111111 H
b11111111111111111111111111111111 J
b00000000000000000000000000000110 L
1N
1P
b00 Q
b000 S
b000 T
b0010011 U
b000 V
0X
b10 Y
b11111 ]
b00111 ^
1_
b00000000000000000000000000000110 d
#111
0_
#112
b00000000000000000000000000000110 *
b00000000000000000000000000011100 C
b00000000000000000000000000011000 D
b00000000000000000000000000100000 E
b00000000000000000000000000011000 F
b11111110000000111001111011100011 G
b11111111111111111111111111111100 H
b00000000000000000000000000000110 I
b00000000000000000000000000000000 J
0N
0P
b01 Q
b001 S
b001 T
b1100011 U
b001 V
1X
b01 Y
b00000 ]
b11101 ^
1_
#113
0_
#114
b00000000000000000000000000011000 C
b00000000000000000000000000011100 D
b00000000000000000000000000011100 E
b00000000000000000000000000010111 F
b11111111111100111000001110010011 G
b11111111111111111111111111111111 H
b11111111111111111111111111111111 J
b00000000000000000000000000000101 L
1N
1P
b00 Q
b000 S
b000 T
b0010011 U
b000 V
0X
b10 Y
b11111 ]
b00111 ^
1_
b00000000000000000000000000000101 d
#115
0_
